com/github/thomasdarimont/keycloak/avatar/storage/minio/MinioAvatarStorageProvider.class
com/github/thomasdarimont/keycloak/avatar/storage/AvatarStorageProviderSpi.class
com/github/thomasdarimont/keycloak/avatar/AvatarResourceProviderFactory.class
com/github/thomasdarimont/keycloak/avatar/AvatarAdminResource.class
com/github/thomasdarimont/keycloak/avatar/AbstractAvatarResource.class
com/github/thomasdarimont/keycloak/avatar/storage/minio/MinioTemplate.class
com/github/thomasdarimont/keycloak/avatar/AvatarResourceProvider.class
com/github/thomasdarimont/keycloak/avatar/storage/AvatarStorageProviderFactory.class
com/github/thomasdarimont/keycloak/avatar/storage/minio/MinioAvatarStorageProviderFactory.class
com/github/thomasdarimont/keycloak/avatar/AvatarResource.class
com/github/thomasdarimont/keycloak/avatar/storage/minio/MinioConfig.class
com/github/thomasdarimont/keycloak/avatar/storage/minio/MinioCallback.class
com/github/thomasdarimont/keycloak/avatar/storage/AvatarStorageProvider.class
